{"data":{"site":{"siteMetadata":{"title":"Meha Masum Resume Website","description":"A starter blog demonstrating what Gatsby can do.","blogTitle":"Meha Masum's Tech Blog","blogSlogan":"Learning in public"}},"allMarkdownRemark":{"totalCount":6,"edges":[{"node":{"id":"8b39ac25-1f64-5ec5-83a6-84cfbb0b7016","excerpt":"Wow! I love blogging so much already. Did you know that “despite its name, salted duck eggs can also be made from\nchicken eggs, though the…","fields":{"slug":"/blog/my-second-post_2/"},"timeToRead":1,"frontmatter":{"date":"May 06, 2015","title":"My Second Post!","tags":["animals"]}}},{"node":{"id":"52ac566a-c4ae-5b99-94d7-011d58e62d50","excerpt":"This is my first post on my new fake blog! How exciting! I’m sure I’ll write a lot more interesting things in the future. Oh, and here’s a…","fields":{"slug":"/blog/hello-world/"},"timeToRead":1,"frontmatter":{"date":"May 01, 2015","title":"Hello World","tags":["animals","Chicago","zoos"]}}}]}},"pageContext":{"limit":2,"skip":2,"current":2,"total":3,"previous":"/blog","next":"/blog/3"}}