{"data":{"site":{"siteMetadata":{"title":"Meha Masum Resume Website","description":"A starter blog demonstrating what Gatsby can do.","blogTitle":"Meha Masum's Tech Blog","blogSlogan":"Learning in public"}},"allMarkdownRemark":{"totalCount":6,"edges":[{"node":{"id":"98d85d66-9e4e-5788-a1d0-bab5e9ccebea","excerpt":"Far far away, behind the word mountains, far from the countries Vokalia and\nConsonantia, there live the blind texts. Separated they live in…","fields":{"slug":"/blog/hi-folks/"},"timeToRead":4,"frontmatter":{"date":"May 28, 2015","title":"New Beginnings","tags":["animals"]}}},{"node":{"id":"3f9e5e49-4509-5c96-8def-484c9b2c5790","excerpt":"Far far away, behind the word mountains, far from the countries Vokalia and\nConsonantia, there live the blind texts. Separated they live in…","fields":{"slug":"/blog/hi-folks_2/"},"timeToRead":4,"frontmatter":{"date":"May 28, 2015","title":"New Beginnings","tags":["animals"]}}}]}},"pageContext":{"limit":2,"skip":0,"current":1,"total":3,"previous":null,"next":"/blog/2"}}