{"data":{"site":{"siteMetadata":{"title":"Meha Masum Resume Website","description":"A starter blog demonstrating what Gatsby can do.","blogTitle":"Meha Masum's Tech Blog","blogSlogan":"Learning in public"}},"allMarkdownRemark":{"totalCount":6,"edges":[{"node":{"id":"98d85d66-9e4e-5788-a1d0-bab5e9ccebea","excerpt":"Far far away, behind the word mountains, far from the countries Vokalia and\nConsonantia, there live the blind texts. Separated they live in…","fields":{"slug":"/blog/hi-folks/"},"timeToRead":4,"frontmatter":{"date":"May 28, 2015","title":"New Beginnings","tags":["animals"],"category":"Interview"}}}]}},"pageContext":{"limit":1,"skip":2,"current":3,"total":4,"previous":"/blog/categories/Interview/2","next":"/blog/4"}}