{"data":{"site":{"siteMetadata":{"title":"Meha Masum Resume Website","description":"A starter blog demonstrating what Gatsby can do.","blogTitle":"Meha Masum's Tech Blog","blogSlogan":"Learning in public"}},"allMarkdownRemark":{"totalCount":2,"edges":[{"node":{"frontmatter":{"title":"Hello World"},"fields":{"slug":"/blog/hello-world/"}}}]}},"pageContext":{"category":"Tech","limit":1,"skip":0,"previous":null,"next":"/blog/categories/Tech/2","current":1,"total":2}}