{"data":{"site":{"siteMetadata":{"title":"Meha Masum","description":"Meha Masum's Software Portfolio and Blog","blogTitle":"Learning in public","blogSlogan":"Meha Masum's Personal Blog"}},"allMarkdownRemark":{"totalCount":4,"edges":[{"node":{"id":"98d85d66-9e4e-5788-a1d0-bab5e9ccebea","excerpt":"Far far away, behind the word mountains, far from the countries Vokalia and\nConsonantia, there live the blind texts. Separated they live in…","fields":{"slug":"/blog/hi-folks/"},"timeToRead":4,"frontmatter":{"date":"May 28, 2015","title":"New Beginnings","tags":["animals"],"category":"Interview","thumb":null}}}]}},"pageContext":{"limit":1,"skip":2,"current":3,"total":4,"previous":"/blog/categories/Interview/2","next":"/blog/categories/Interview/4","category":"Interview"}}