{"data":{"site":{"siteMetadata":{"title":"Meha Masum Resume Website","description":"A starter blog demonstrating what Gatsby can do.","blogTitle":"Meha Masum's Blog","blogSlogan":"Learning in public"}},"allMarkdownRemark":{"totalCount":6,"edges":[{"node":{"frontmatter":{"title":"Hello World"},"fields":{"slug":"/blog/hello-world/"}}}]}},"pageContext":{"tag":"animals","limit":1,"skip":4,"indx":4,"previous":"/blog/tags/animals/4","next":"/blog/tags/animals/6"}}