{"errors":[{"message":"Variable \"$cat\" is not defined by operation \"cUsersMehamasumCodeNodeGatsbyMehamasumMeSrcTemplatesCategoryJs872485944\".","locations":[{"line":14,"column":110},{"line":1,"column":1}]},{"message":"Variable \"$category\" is never used in operation \"cUsersMehamasumCodeNodeGatsbyMehamasumMeSrcTemplatesCategoryJs872485944\".","locations":[{"line":2,"column":3}]}],"pageContext":{"category":"Interview","limit":1,"skip":0,"previous":null,"next":"/blog/categories/Interview/2","current":1,"total":4}}