{"data":{"site":{"siteMetadata":{"title":"Meha Masum Resume Website","description":"A starter blog demonstrating what Gatsby can do.","blogTitle":"Meha Masum's Blog","blogSlogan":"Learning in public"}},"allMarkdownRemark":{"totalCount":6,"edges":[{"node":{"frontmatter":{"title":"New Beginnings"},"fields":{"slug":"/blog/hi-folks/"}}},{"node":{"frontmatter":{"title":"New Beginnings"},"fields":{"slug":"/blog/hi-folks_2/"}}}]}},"pageContext":{"tag":"animals","limit":2,"skip":0,"previous":null,"next":"/blog/tags/animals/2"}}