{"data":{"site":{"siteMetadata":{"title":"Meha Masum Resume Website","description":"A starter blog demonstrating what Gatsby can do.","blogTitle":"Meha Masum's Tech Blog","blogSlogan":"Learning in public"}},"allMarkdownRemark":{"totalCount":4,"edges":[{"node":{"frontmatter":{"title":"New Beginnings"},"fields":{"slug":"/blog/hi-folks/"}}}]}},"pageContext":{"category":"Interview","limit":1,"skip":2,"previous":"/blog/categories/Interview/2","next":"/blog/categories/Interview/4","current":3,"total":4}}