{"data":{"site":{"siteMetadata":{"title":"Meha Masum Resume Website","description":"A starter blog demonstrating what Gatsby can do.","blogTitle":"Meha Masum's Blog","blogSlogan":"Learning in public"}},"allMarkdownRemark":{"totalCount":6,"edges":[{"node":{"frontmatter":{"title":"My Second Post!"},"fields":{"slug":"/blog/my-second-post_2/"}}}]}},"pageContext":{"tag":"animals","limit":1,"skip":3,"indx":3,"previous":"/blog/tags/animals/3","next":"/blog/tags/animals/5"}}