{"data":{"site":{"siteMetadata":{"title":"Meha Masum","description":"Meha Masum's Software Portfolio and Blog","blogTitle":"Meha Masum's Personal Blog","blogSlogan":"Learning in public"}},"allMarkdownRemark":{"totalCount":4,"edges":[{"node":{"id":"8b39ac25-1f64-5ec5-83a6-84cfbb0b7016","excerpt":"Wow! I love blogging so much already. Did you know that “despite its name, salted duck eggs can also be made from\nchicken eggs, though the…","fields":{"slug":"/blog/my-second-post_2/"},"timeToRead":1,"frontmatter":{"date":"September 06, 2015","title":"My Second Post!","tags":["animals"],"category":"Interview"}}}]}},"pageContext":{"limit":1,"skip":0,"current":1,"total":4,"previous":null,"next":"/blog/categories/Interview/2","category":"Interview"}}