{"data":{"site":{"siteMetadata":{"title":"Meha Masum Resume Website","description":"A starter blog demonstrating what Gatsby can do.","blogTitle":"Meha Masum's Tech Blog","blogSlogan":"Learning in public"}},"allMarkdownRemark":{"totalCount":4,"edges":[{"node":{"frontmatter":{"title":"My Second Post!"},"fields":{"slug":"/blog/my-second-post_2/"}}}]}},"pageContext":{"category":"Interview","limit":1,"skip":0,"previous":null,"next":"/blog/categories/Interview/2","current":1,"total":4}}