{"errors":[{"message":"Variable \"$cat\" is not defined by operation \"cUsersMehamasumCodeNodeGatsbyMehamasumMeSrcTemplatesCategoryJs1702393877\".","locations":[{"line":14,"column":105},{"line":1,"column":1}]},{"message":"Variable \"$category\" is never used in operation \"cUsersMehamasumCodeNodeGatsbyMehamasumMeSrcTemplatesCategoryJs1702393877\".","locations":[{"line":2,"column":3}]}],"pageContext":{"category":"Interview","limit":1,"skip":2,"previous":"/blog/categories/Interview/2","next":"/blog/categories/Interview/4","current":3,"total":4}}