{"data":{"site":{"siteMetadata":{"title":"Meha Masum","description":"Meha Masum's Software Portfolio and Blog","blogTitle":"Meha Masum's Personal Blog","blogSlogan":"Learning in public"}},"allMarkdownRemark":{"totalCount":2,"edges":[{"node":{"id":"52ac566a-c4ae-5b99-94d7-011d58e62d50","excerpt":"This is my first post on my new fake blog! How exciting! I’m sure I’ll write a lot more interesting things in the future. Oh, and here’s a…","fields":{"slug":"/blog/hello-world/"},"timeToRead":1,"frontmatter":{"date":"May 01, 2015","title":"Hello World","tags":["animals","Chicago","zoos"],"category":"Tech"}}}]}},"pageContext":{"limit":1,"skip":0,"current":1,"total":2,"previous":null,"next":"/blog/categories/Tech/2","category":"Tech"}}