{"errors":[{"message":"Variable \"$cat\" is not defined by operation \"cUsersMehamasumCodeNodeGatsbyMehamasumMeSrcTemplatesCategoryJs872485944\".","locations":[{"line":14,"column":110},{"line":1,"column":1}]},{"message":"Variable \"$category\" is never used in operation \"cUsersMehamasumCodeNodeGatsbyMehamasumMeSrcTemplatesCategoryJs872485944\".","locations":[{"line":2,"column":3}]}],"pageContext":{"category":"Interview","limit":1,"skip":1,"previous":"/blog/categories/Interview","next":"/blog/categories/Interview/3","current":2,"total":4}}