{"data":{"site":{"siteMetadata":{"title":"Meha Masum","description":"Meha Masum's Software Portfolio and Blog","blogTitle":"Learning in public","blogSlogan":"Meha Masum's Personal Blog"}},"allMarkdownRemark":{"totalCount":6,"edges":[{"node":{"id":"8b39ac25-1f64-5ec5-83a6-84cfbb0b7016","excerpt":"Wow! I love blogging so much already. Did you know that “despite its name, salted duck eggs can also be made from\nchicken eggs, though the…","fields":{"slug":"/blog/my-second-post_2/"},"timeToRead":1,"frontmatter":{"date":"September 06, 2015","title":"My Second Post!","tags":["animals"],"category":"Interview"}}},{"node":{"id":"7874d1d4-9fc9-5a40-85b3-80b54ff2a4dd","excerpt":"Wow! I love blogging so much already. Did you know that “despite its name, salted duck eggs can also be made from\nchicken eggs, though the…","fields":{"slug":"/blog/my-second-post/"},"timeToRead":1,"frontmatter":{"date":"July 06, 2015","title":"My Second Post!","tags":["animals"],"category":"Interview"}}}]}},"pageContext":{"limit":2,"skip":0,"current":1,"total":3,"previous":null,"next":"/blog/2"}}