{"data":{"site":{"siteMetadata":{"title":null,"description":null,"blogTitle":null,"blogSlogan":null}},"allMarkdownRemark":{"totalCount":4,"edges":[{"node":{"id":"7874d1d4-9fc9-5a40-85b3-80b54ff2a4dd","excerpt":"Wow! I love blogging so much already. Did you know that “despite its name, salted duck eggs can also be made from\nchicken eggs, though the…","fields":{"slug":"/blog/my-second-post/"},"timeToRead":1,"frontmatter":{"date":"July 06, 2015","title":"My Second Post!","tags":["animals"],"category":"Interview"}}}]}},"pageContext":{"limit":1,"skip":1,"current":2,"total":4,"previous":"/blog/categories/Interview","next":"/blog/categories/Interview/3","category":"Interview"}}