{"data":{"site":{"siteMetadata":{"title":"Meha Masum Resume Website","description":"A starter blog demonstrating what Gatsby can do.","blogTitle":"Meha Masum's Tech Blog","blogSlogan":"Learning in public"}},"allMarkdownRemark":{"totalCount":4,"edges":[{"node":{"frontmatter":{"title":"My Second Post!"},"fields":{"slug":"/blog/my-second-post/"}}}]}},"pageContext":{"category":"Interview","limit":1,"skip":1,"previous":"/blog/categories/Interview","next":"/blog/categories/Interview/3","current":2,"total":4}}