{"data":{"site":{"siteMetadata":{"title":"Meha Masum Resume Website","description":"A starter blog demonstrating what Gatsby can do.","blogTitle":"Meha Masum's Tech Blog","blogSlogan":"Learning in public"}},"allMarkdownRemark":{"totalCount":6,"edges":[{"node":{"id":"7874d1d4-9fc9-5a40-85b3-80b54ff2a4dd","excerpt":"Wow! I love blogging so much already. Did you know that “despite its name, salted duck eggs can also be made from\nchicken eggs, though the…","fields":{"slug":"/blog/my-second-post/"},"timeToRead":1,"frontmatter":{"date":"July 06, 2015","title":"My Second Post!","tags":["animals"]}}},{"node":{"id":"98d85d66-9e4e-5788-a1d0-bab5e9ccebea","excerpt":"Far far away, behind the word mountains, far from the countries Vokalia and\nConsonantia, there live the blind texts. Separated they live in…","fields":{"slug":"/blog/hi-folks/"},"timeToRead":4,"frontmatter":{"date":"May 28, 2015","title":"New Beginnings","tags":["animals"]}}}]}},"pageContext":{"limit":2,"skip":0,"current":1,"total":3,"previous":null,"next":"/blog/2"}}