{"data":{"site":{"siteMetadata":{"title":"Meha Masum Resume Website","description":"A starter blog demonstrating what Gatsby can do.","blogTitle":"Meha Masum's Blog","blogSlogan":"Learning in public"}},"allMarkdownRemark":{"totalCount":3,"edges":[{"node":{"frontmatter":{"title":"My Second Post!"},"fields":{"slug":"/blog/my-second-post/"}}}]}},"pageContext":{"tag":"animals","limit":1,"skip":1,"indx":1,"previous":"/blog/tags/animals","next":"/blog/tags/animals/3"}}