{"data":{"site":{"siteMetadata":{"title":"Meha Masum","description":"A starter blog demonstrating what Gatsby can do.","blogTitle":"Meha Masum's Tech Blog","blogSlogan":"Learning in public"}},"allMarkdownRemark":{"totalCount":6,"edges":[{"node":{"id":"98d85d66-9e4e-5788-a1d0-bab5e9ccebea","excerpt":"Far far away, behind the word mountains, far from the countries Vokalia and\nConsonantia, there live the blind texts. Separated they live in…","fields":{"slug":"/blog/hi-folks/"},"timeToRead":4,"frontmatter":{"date":"May 28, 2015","title":"New Beginnings","tags":["animals"],"category":"Interview"}}},{"node":{"id":"52ac566a-c4ae-5b99-94d7-011d58e62d50","excerpt":"This is my first post on my new fake blog! How exciting! I’m sure I’ll write a lot more interesting things in the future. Oh, and here’s a…","fields":{"slug":"/blog/hello-world/"},"timeToRead":1,"frontmatter":{"date":"May 01, 2015","title":"Hello World","tags":["animals","Chicago","zoos"],"category":"Tech"}}}]}},"pageContext":{"limit":2,"skip":2,"current":2,"total":3,"previous":"/blog","next":"/blog/3"}}